clock0_99.vcd
$date
	Wed Apr 02 15:38:58 2025
$end
$version
	Icarus Verilog
$end
$timescale
	1ps
$end
$scope module clock0_99_tb $end
$var wire 7 ! decode_clock2 [6:0] $end
$var wire 7 " decode_clock1 [6:0] $end
$var reg 1 # clk $end
$var reg 1 $ rst $end
$scope module uut $end
$var wire 1 # clk $end
$var wire 1 $ rst $end
$var wire 7 % decode_clock2 [6:0] $end
$var wire 7 & decode_clock1 [6:0] $end
$var reg 4 ' clock1 [3:0] $end
$var reg 4 ( clock2 [3:0] $end
$scope function decode_clock $end
$var reg 4 ) decode [3:0] $end
$upscope $end
$upscope $end
$upscope $end
$enddefinitions $end
$comment Show the parameter values. $end
$dumpall
$end
#0
$dumpvars
b0 )
b0 (
b0 '
b111111 &
b111111 %
0$
0#
b111111 "
b111111 !
$end
#10000
1#
#20000
0#
1$
#30000
b110 "
b110 &
b1 )
b1 '
1#
#40000
0#
#50000
b1011011 "
b1011011 &
b10 )
b10 '
1#
#60000
0#
#70000
b1001111 "
b1001111 &
b11 )
b11 '
1#
#80000
0#
#90000
b1100110 "
b1100110 &
b100 )
b100 '
1#
#100000
0#
#110000
b1101101 "
b1101101 &
b101 )
b101 '
1#
#120000
0#
#130000
b1111101 "
b1111101 &
b110 )
b110 '
1#
#140000
0#
#150000
b111 "
b111 &
b111 )
b111 '
1#
#160000
0#
#170000
b1111111 "
b1111111 &
b1000 )
b1000 '
1#
#180000
0#
#190000
b1101111 "
b1101111 &
b1001 )
b1001 '
1#
#200000
0#
#210000
b110 !
b110 %
b111111 "
b111111 &
b1 )
b1 (
b0 '
1#
#220000
0#
#230000
b110 "
b110 &
b1 '
1#
#240000
0#
#250000
b1011011 "
b1011011 &
b10 )
b10 '
1#
#260000
0#
#270000
b1001111 "
b1001111 &
b11 )
b11 '
1#
#280000
0#
#290000
b1100110 "
b1100110 &
b100 )
b100 '
1#
#300000
0#
#310000
b1101101 "
b1101101 &
b101 )
b101 '
1#
#320000
0#
#330000
b1111101 "
b1111101 &
b110 )
b110 '
1#
#340000
0#
#350000
b111 "
b111 &
b111 )
b111 '
1#
#360000
0#
#370000
b1111111 "
b1111111 &
b1000 )
b1000 '
1#
#380000
0#
#390000
b1101111 "
b1101111 &
b1001 )
b1001 '
1#
#400000
0#
#410000
b1011011 !
b1011011 %
b111111 "
b111111 &
b10 )
b10 (
b0 '
1#
#420000
0#
#430000
b110 "
b110 &
b1 )
b1 '
1#
#440000
0#
#450000
b1011011 "
b1011011 &
b10 )
b10 '
1#
#460000
0#
#470000
b1001111 "
b1001111 &
b11 )
b11 '
1#
#480000
0#
#490000
b1100110 "
b1100110 &
b100 )
b100 '
1#
#500000
0#
#510000
b1101101 "
b1101101 &
b101 )
b101 '
1#
#520000
0#
#530000
b1111101 "
b1111101 &
b110 )
b110 '
1#
#540000
0#
#550000
b111 "
b111 &
b111 )
b111 '
1#
#560000
0#
#570000
b1111111 "
b1111111 &
b1000 )
b1000 '
1#
#580000
0#
#590000
b1101111 "
b1101111 &
b1001 )
b1001 '
1#
#600000
0#
#610000
b1001111 !
b1001111 %
b111111 "
b111111 &
b11 )
b11 (
b0 '
1#
#620000
0#
#630000
b110 "
b110 &
b1 )
b1 '
1#
#640000
0#
#650000
b1011011 "
b1011011 &
b10 )
b10 '
1#
#660000
0#
#670000
b1001111 "
b1001111 &
b11 )
b11 '
1#
#680000
0#
#690000
b1100110 "
b1100110 &
b100 )
b100 '
1#
#700000
0#
#710000
b1101101 "
b1101101 &
b101 )
b101 '
1#
#720000
0#
#730000
b1111101 "
b1111101 &
b110 )
b110 '
1#
#740000
0#
#750000
b111 "
b111 &
b111 )
b111 '
1#
#760000
0#
#770000
b1111111 "
b1111111 &
b1000 )
b1000 '
1#
#780000
0#
#790000
b1101111 "
b1101111 &
b1001 )
b1001 '
1#
#800000
0#
#810000
b1100110 !
b1100110 %
b111111 "
b111111 &
b100 )
b100 (
b0 '
1#
#820000
0#
#830000
b110 "
b110 &
b1 )
b1 '
1#
#840000
0#
#850000
b1011011 "
b1011011 &
b10 )
b10 '
1#
#860000
0#
#870000
b1001111 "
b1001111 &
b11 )
b11 '
1#
#880000
0#
#890000
b1100110 "
b1100110 &
b100 )
b100 '
1#
#900000
0#
#910000
b1101101 "
b1101101 &
b101 )
b101 '
1#
#920000
0#
#930000
b1111101 "
b1111101 &
b110 )
b110 '
1#
#940000
0#
#950000
b111 "
b111 &
b111 )
b111 '
1#
#960000
0#
#970000
b1111111 "
b1111111 &
b1000 )
b1000 '
1#
#980000
0#
#990000
b1101111 "
b1101111 &
b1001 )
b1001 '
1#
