dc.vcd
$date
	Wed Feb 19 09:42:35 2025
$end
$version
	Icarus Verilog
$end
$timescale
	1s
$end
$scope module tb $end
$var wire 1 ! temp_loadP $end
$var wire 1 " temp_loadB $end
$var wire 1 # temp_loadA $end
$var wire 1 $ temp_eqz $end
$var wire 1 % temp_done $end
$var wire 1 & temp_decB $end
$var wire 1 ' temp_clrP $end
$var wire 16 ( data_out [15:0] $end
$var reg 1 ) clk $end
$var reg 16 * data_in [15:0] $end
$var reg 1 + reset $end
$var reg 1 , start $end
$var integer 32 - i [31:0] $end
$scope module CT $end
$var wire 1 ) clk $end
$var wire 1 + reset $end
$var wire 1 , start $end
$var wire 1 $ eqz $end
$var parameter 2 . S0 $end
$var parameter 2 / S1 $end
$var parameter 2 0 S2 $end
$var parameter 2 1 S3 $end
$var reg 2 2 NState [1:0] $end
$var reg 2 3 PState [1:0] $end
$var reg 1 ' clrP $end
$var reg 1 & decB $end
$var reg 1 % done $end
$var reg 1 # load_A $end
$var reg 1 " load_B $end
$var reg 1 ! load_P $end
$upscope $end
$scope module DP $end
$var wire 1 ) clk $end
$var wire 1 ' clrP $end
$var wire 1 & decB $end
$var wire 1 % done $end
$var wire 16 4 in [15:0] $end
$var wire 1 # load_A $end
$var wire 1 " load_B $end
$var wire 1 ! load_P $end
$var wire 1 + reset $end
$var wire 16 5 temp_P [15:0] $end
$var wire 16 6 temp_B [15:0] $end
$var wire 16 7 temp_ADD [15:0] $end
$var wire 16 8 temp_A [15:0] $end
$var wire 1 $ eqz $end
$var reg 16 9 out [15:0] $end
$scope module A $end
$var wire 1 ) clk $end
$var wire 1 : clr $end
$var wire 1 ; dec $end
$var wire 16 < inp [15:0] $end
$var wire 1 # load $end
$var wire 1 + reset $end
$var reg 16 = outp [15:0] $end
$var reg 16 > temp [15:0] $end
$upscope $end
$scope module ADD $end
$var wire 16 ? a [15:0] $end
$var wire 16 @ result [15:0] $end
$var wire 16 A b [15:0] $end
$upscope $end
$scope module B $end
$var wire 1 ) clk $end
$var wire 1 B clr $end
$var wire 1 & dec $end
$var wire 16 C inp [15:0] $end
$var wire 1 " load $end
$var wire 1 + reset $end
$var reg 16 D outp [15:0] $end
$var reg 16 E temp [15:0] $end
$upscope $end
$scope module CP $end
$var wire 16 F inp [15:0] $end
$var reg 1 $ eqz $end
$upscope $end
$scope module P $end
$var wire 1 ) clk $end
$var wire 1 ' clr $end
$var wire 1 G dec $end
$var wire 16 H inp [15:0] $end
$var wire 1 ! load $end
$var wire 1 + reset $end
$var reg 16 I outp [15:0] $end
$var reg 16 J temp [15:0] $end
$upscope $end
$upscope $end
$upscope $end
$enddefinitions $end
$comment Show the parameter values. $end
$dumpall
b11 1
b10 0
b1 /
b0 .
$end
#0
$dumpvars
bz J
bz I
bx H
0G
bz F
bz E
bz D
bx C
0B
bz A
bx @
bz ?
bz >
bz =
bx <
0;
0:
bz 9
bz 8
bx 7
bz 6
bz 5
bx 4
b0 3
b1 2
b0 -
0,
1+
bx *
0)
bz (
1'
0&
0%
0$
1#
0"
0!
$end
#5
b0 5
b0 A
b0 I
bx 8
bx =
bx ?
b0 J
bx >
1)
0+
#10
0)
#15
1)
#20
b10010011 *
b10010011 4
b10010011 <
b10010011 C
1,
0)
#25
b10 2
x'
1"
0#
b10010011 7
b10010011 @
b10010011 H
b10010011 8
b10010011 =
b10010011 ?
b1 3
b10010011 >
1)
#30
b1000001 *
b1000001 4
b1000001 <
b1000001 C
0)
#35
b1000001 6
b1000001 D
b1000001 F
1!
1&
0'
0"
b1000001 E
b10 3
1)
#40
0)
#45
b100100110 7
b100100110 @
b100100110 H
b10010011 5
b10010011 A
b10010011 I
b1000000 6
b1000000 D
b1000000 F
b10010011 J
b1000000 E
1)
#50
0)
#55
b111111 6
b111111 D
b111111 F
b110111001 7
b110111001 @
b110111001 H
b100100110 5
b100100110 A
b100100110 I
b111111 E
b100100110 J
1)
#60
0)
#65
b1001001100 7
b1001001100 @
b1001001100 H
b110111001 5
b110111001 A
b110111001 I
b111110 6
b111110 D
b111110 F
b110111001 J
b111110 E
1)
#70
0)
#75
b111101 6
b111101 D
b111101 F
b1011011111 7
b1011011111 @
b1011011111 H
b1001001100 5
b1001001100 A
b1001001100 I
b111101 E
b1001001100 J
1)
#80
0)
#85
b1101110010 7
b1101110010 @
b1101110010 H
b1011011111 5
b1011011111 A
b1011011111 I
b111100 6
b111100 D
b111100 F
b1011011111 J
b111100 E
1)
#90
0)
#95
b111011 6
b111011 D
b111011 F
b10000000101 7
b10000000101 @
b10000000101 H
b1101110010 5
b1101110010 A
b1101110010 I
b111011 E
b1101110010 J
1)
#100
0)
#105
b10010011000 7
b10010011000 @
b10010011000 H
b10000000101 5
b10000000101 A
b10000000101 I
b111010 6
b111010 D
b111010 F
b10000000101 J
b111010 E
1)
#110
0)
#115
b111001 6
b111001 D
b111001 F
b10100101011 7
b10100101011 @
b10100101011 H
b10010011000 5
b10010011000 A
b10010011000 I
b111001 E
b10010011000 J
1)
#120
0)
#125
b10110111110 7
b10110111110 @
b10110111110 H
b10100101011 5
b10100101011 A
b10100101011 I
b111000 6
b111000 D
b111000 F
b10100101011 J
b111000 E
1)
#130
0)
#135
b110111 6
b110111 D
b110111 F
b11001010001 7
b11001010001 @
b11001010001 H
b10110111110 5
b10110111110 A
b10110111110 I
b110111 E
b10110111110 J
1)
#140
0)
#145
b11011100100 7
b11011100100 @
b11011100100 H
b11001010001 5
b11001010001 A
b11001010001 I
b110110 6
b110110 D
b110110 F
b11001010001 J
b110110 E
1)
#150
0)
#155
b110101 6
b110101 D
b110101 F
b11101110111 7
b11101110111 @
b11101110111 H
b11011100100 5
b11011100100 A
b11011100100 I
b110101 E
b11011100100 J
1)
#160
0)
#165
b100000001010 7
b100000001010 @
b100000001010 H
b11101110111 5
b11101110111 A
b11101110111 I
b110100 6
b110100 D
b110100 F
b11101110111 J
b110100 E
1)
#170
0)
#175
b110011 6
b110011 D
b110011 F
b100010011101 7
b100010011101 @
b100010011101 H
b100000001010 5
b100000001010 A
b100000001010 I
b110011 E
b100000001010 J
1)
#180
0)
#185
b100100110000 7
b100100110000 @
b100100110000 H
b100010011101 5
b100010011101 A
b100010011101 I
b110010 6
b110010 D
b110010 F
b100010011101 J
b110010 E
1)
#190
0)
#195
b110001 6
b110001 D
b110001 F
b100111000011 7
b100111000011 @
b100111000011 H
b100100110000 5
b100100110000 A
b100100110000 I
b110001 E
b100100110000 J
1)
#200
0)
#205
b101001010110 7
b101001010110 @
b101001010110 H
b100111000011 5
b100111000011 A
b100111000011 I
b110000 6
b110000 D
b110000 F
b100111000011 J
b110000 E
1)
#210
0)
#215
b101111 6
b101111 D
b101111 F
b101011101001 7
b101011101001 @
b101011101001 H
b101001010110 5
b101001010110 A
b101001010110 I
b101111 E
b101001010110 J
1)
#220
0)
#225
b101101111100 7
b101101111100 @
b101101111100 H
b101011101001 5
b101011101001 A
b101011101001 I
b101110 6
b101110 D
b101110 F
b101011101001 J
b101110 E
1)
#230
0)
#235
b101101 6
b101101 D
b101101 F
b110000001111 7
b110000001111 @
b110000001111 H
b101101111100 5
b101101111100 A
b101101111100 I
b101101 E
b101101111100 J
1)
#240
0)
#245
b110010100010 7
b110010100010 @
b110010100010 H
b110000001111 5
b110000001111 A
b110000001111 I
b101100 6
b101100 D
b101100 F
b110000001111 J
b101100 E
1)
#250
0)
#255
b101011 6
b101011 D
b101011 F
b110100110101 7
b110100110101 @
b110100110101 H
b110010100010 5
b110010100010 A
b110010100010 I
b101011 E
b110010100010 J
1)
#260
0)
#265
b110111001000 7
b110111001000 @
b110111001000 H
b110100110101 5
b110100110101 A
b110100110101 I
b101010 6
b101010 D
b101010 F
b110100110101 J
b101010 E
1)
#270
0)
#275
b101001 6
b101001 D
b101001 F
b111001011011 7
b111001011011 @
b111001011011 H
b110111001000 5
b110111001000 A
b110111001000 I
b101001 E
b110111001000 J
1)
#280
0)
#285
b111011101110 7
b111011101110 @
b111011101110 H
b111001011011 5
b111001011011 A
b111001011011 I
b101000 6
b101000 D
b101000 F
b111001011011 J
b101000 E
1)
#290
0)
#295
b100111 6
b100111 D
b100111 F
b111110000001 7
b111110000001 @
b111110000001 H
b111011101110 5
b111011101110 A
b111011101110 I
b100111 E
b111011101110 J
1)
#300
0)
#305
b1000000010100 7
b1000000010100 @
b1000000010100 H
b111110000001 5
b111110000001 A
b111110000001 I
b100110 6
b100110 D
b100110 F
b111110000001 J
b100110 E
1)
#310
0)
#315
b100101 6
b100101 D
b100101 F
b1000010100111 7
b1000010100111 @
b1000010100111 H
b1000000010100 5
b1000000010100 A
b1000000010100 I
b100101 E
b1000000010100 J
1)
#320
0)
#325
b1000100111010 7
b1000100111010 @
b1000100111010 H
b1000010100111 5
b1000010100111 A
b1000010100111 I
b100100 6
b100100 D
b100100 F
b1000010100111 J
b100100 E
1)
#330
0)
#335
b100011 6
b100011 D
b100011 F
b1000111001101 7
b1000111001101 @
b1000111001101 H
b1000100111010 5
b1000100111010 A
b1000100111010 I
b100011 E
b1000100111010 J
1)
#340
0)
#345
b1001001100000 7
b1001001100000 @
b1001001100000 H
b1000111001101 5
b1000111001101 A
b1000111001101 I
b100010 6
b100010 D
b100010 F
b1000111001101 J
b100010 E
1)
#350
0)
#355
b100001 6
b100001 D
b100001 F
b1001011110011 7
b1001011110011 @
b1001011110011 H
b1001001100000 5
b1001001100000 A
b1001001100000 I
b100001 E
b1001001100000 J
1)
#360
0)
#365
b1001110000110 7
b1001110000110 @
b1001110000110 H
b1001011110011 5
b1001011110011 A
b1001011110011 I
b100000 6
b100000 D
b100000 F
b1001011110011 J
b100000 E
1)
#370
0)
#375
b11111 6
b11111 D
b11111 F
b1010000011001 7
b1010000011001 @
b1010000011001 H
b1001110000110 5
b1001110000110 A
b1001110000110 I
b11111 E
b1001110000110 J
1)
#380
0)
#385
b1010010101100 7
b1010010101100 @
b1010010101100 H
b1010000011001 5
b1010000011001 A
b1010000011001 I
b11110 6
b11110 D
b11110 F
b1010000011001 J
b11110 E
1)
#390
0)
#395
b11101 6
b11101 D
b11101 F
b1010100111111 7
b1010100111111 @
b1010100111111 H
b1010010101100 5
b1010010101100 A
b1010010101100 I
b11101 E
b1010010101100 J
1)
#400
0)
#405
b1010111010010 7
b1010111010010 @
b1010111010010 H
b1010100111111 5
b1010100111111 A
b1010100111111 I
b11100 6
b11100 D
b11100 F
b1010100111111 J
b11100 E
1)
#410
0)
#415
b11011 6
b11011 D
b11011 F
b1011001100101 7
b1011001100101 @
b1011001100101 H
b1010111010010 5
b1010111010010 A
b1010111010010 I
b11011 E
b1010111010010 J
1)
#420
0)
#425
b1011011111000 7
b1011011111000 @
b1011011111000 H
b1011001100101 5
b1011001100101 A
b1011001100101 I
b11010 6
b11010 D
b11010 F
b1011001100101 J
b11010 E
1)
#430
0)
#435
b11001 6
b11001 D
b11001 F
b1011110001011 7
b1011110001011 @
b1011110001011 H
b1011011111000 5
b1011011111000 A
b1011011111000 I
b11001 E
b1011011111000 J
1)
#440
0)
#445
b1100000011110 7
b1100000011110 @
b1100000011110 H
b1011110001011 5
b1011110001011 A
b1011110001011 I
b11000 6
b11000 D
b11000 F
b1011110001011 J
b11000 E
1)
#450
0)
#455
b10111 6
b10111 D
b10111 F
b1100010110001 7
b1100010110001 @
b1100010110001 H
b1100000011110 5
b1100000011110 A
b1100000011110 I
b10111 E
b1100000011110 J
1)
#460
0)
#465
b1100101000100 7
b1100101000100 @
b1100101000100 H
b1100010110001 5
b1100010110001 A
b1100010110001 I
b10110 6
b10110 D
b10110 F
b1100010110001 J
b10110 E
1)
#470
0)
#475
b10101 6
b10101 D
b10101 F
b1100111010111 7
b1100111010111 @
b1100111010111 H
b1100101000100 5
b1100101000100 A
b1100101000100 I
b10101 E
b1100101000100 J
1)
#480
0)
#485
b1101001101010 7
b1101001101010 @
b1101001101010 H
b1100111010111 5
b1100111010111 A
b1100111010111 I
b10100 6
b10100 D
b10100 F
b1100111010111 J
b10100 E
1)
#490
0)
#495
b10011 6
b10011 D
b10011 F
b1101011111101 7
b1101011111101 @
b1101011111101 H
b1101001101010 5
b1101001101010 A
b1101001101010 I
b10011 E
b1101001101010 J
1)
#500
0)
#505
b1101110010000 7
b1101110010000 @
b1101110010000 H
b1101011111101 5
b1101011111101 A
b1101011111101 I
b10010 6
b10010 D
b10010 F
b1101011111101 J
b10010 E
1)
#510
0)
#515
b10001 6
b10001 D
b10001 F
b1110000100011 7
b1110000100011 @
b1110000100011 H
b1101110010000 5
b1101110010000 A
b1101110010000 I
b10001 E
b1101110010000 J
1)
#520
0)
#525
b1110010110110 7
b1110010110110 @
b1110010110110 H
b1110000100011 5
b1110000100011 A
b1110000100011 I
b10000 6
b10000 D
b10000 F
b1110000100011 J
b10000 E
1)
#530
0)
#535
b1111 6
b1111 D
b1111 F
b1110101001001 7
b1110101001001 @
b1110101001001 H
b1110010110110 5
b1110010110110 A
b1110010110110 I
b1111 E
b1110010110110 J
1)
#540
0)
#545
b1110111011100 7
b1110111011100 @
b1110111011100 H
b1110101001001 5
b1110101001001 A
b1110101001001 I
b1110 6
b1110 D
b1110 F
b1110101001001 J
b1110 E
1)
#550
0)
#555
b1101 6
b1101 D
b1101 F
b1111001101111 7
b1111001101111 @
b1111001101111 H
b1110111011100 5
b1110111011100 A
b1110111011100 I
b1101 E
b1110111011100 J
1)
#560
0)
#565
b1111100000010 7
b1111100000010 @
b1111100000010 H
b1111001101111 5
b1111001101111 A
b1111001101111 I
b1100 6
b1100 D
b1100 F
b1111001101111 J
b1100 E
1)
#570
0)
#575
b1011 6
b1011 D
b1011 F
b1111110010101 7
b1111110010101 @
b1111110010101 H
b1111100000010 5
b1111100000010 A
b1111100000010 I
b1011 E
b1111100000010 J
1)
#580
0)
#585
b10000000101000 7
b10000000101000 @
b10000000101000 H
b1111110010101 5
b1111110010101 A
b1111110010101 I
b1010 6
b1010 D
b1010 F
b1111110010101 J
b1010 E
1)
#590
0)
#595
b1001 6
b1001 D
b1001 F
b10000010111011 7
b10000010111011 @
b10000010111011 H
b10000000101000 5
b10000000101000 A
b10000000101000 I
b1001 E
b10000000101000 J
1)
#600
0)
#605
b10000101001110 7
b10000101001110 @
b10000101001110 H
b10000010111011 5
b10000010111011 A
b10000010111011 I
b1000 6
b1000 D
b1000 F
b10000010111011 J
b1000 E
1)
#610
0)
#615
b111 6
b111 D
b111 F
b10000111100001 7
b10000111100001 @
b10000111100001 H
b10000101001110 5
b10000101001110 A
b10000101001110 I
b111 E
b10000101001110 J
1)
#620
0)
#625
b10001001110100 7
b10001001110100 @
b10001001110100 H
b10000111100001 5
b10000111100001 A
b10000111100001 I
b110 6
b110 D
b110 F
b10000111100001 J
b110 E
1)
#630
0)
#635
b101 6
b101 D
b101 F
b10001100000111 7
b10001100000111 @
b10001100000111 H
b10001001110100 5
b10001001110100 A
b10001001110100 I
b101 E
b10001001110100 J
1)
#640
0)
#645
b10001110011010 7
b10001110011010 @
b10001110011010 H
b10001100000111 5
b10001100000111 A
b10001100000111 I
b100 6
b100 D
b100 F
b10001100000111 J
b100 E
1)
#650
0)
#655
b11 6
b11 D
b11 F
b10010000101101 7
b10010000101101 @
b10010000101101 H
b10001110011010 5
b10001110011010 A
b10001110011010 I
b11 E
b10001110011010 J
1)
#660
0)
#665
b10010011000000 7
b10010011000000 @
b10010011000000 H
b10010000101101 5
b10010000101101 A
b10010000101101 I
b10 6
b10 D
b10 F
b10010000101101 J
b10 E
1)
#670
0)
#675
b1 6
b1 D
b1 F
b10010101010011 7
b10010101010011 @
b10010101010011 H
b10010011000000 5
b10010011000000 A
b10010011000000 I
b1 E
b10010011000000 J
1)
#680
0)
#685
b11 2
0!
0&
1$
b10010111100110 7
b10010111100110 @
b10010111100110 H
b10010101010011 5
b10010101010011 A
b10010101010011 I
b0 6
b0 D
b0 F
b10010101010011 J
b0 E
1)
#690
0)
#695
b10010101010011 (
b10010101010011 9
b0 2
1%
b11 3
1)
#700
b1 -
0,
0)
#705
bz (
bz 9
b1 2
0%
1'
1#
b0 3
1)
#710
b101 *
b101 4
b101 <
b101 C
1,
0)
#715
b101 8
b101 =
b101 ?
b101 7
b101 @
b101 H
b0 5
b0 A
b0 I
b10 2
x'
1"
0#
b101 >
b0 J
b1 3
1)
#720
b110010 *
b110010 4
b110010 <
b110010 C
0)
#725
1!
1&
0$
b10 2
0'
0"
b110010 6
b110010 D
b110010 F
b10 3
b110010 E
1)
#730
0)
#735
b110001 6
b110001 D
b110001 F
b1010 7
b1010 @
b1010 H
b101 5
b101 A
b101 I
b110001 E
b101 J
1)
#740
0)
#745
b1111 7
b1111 @
b1111 H
b1010 5
b1010 A
b1010 I
b110000 6
b110000 D
b110000 F
b1010 J
b110000 E
1)
#750
0)
#755
b101111 6
b101111 D
b101111 F
b10100 7
b10100 @
b10100 H
b1111 5
b1111 A
b1111 I
b101111 E
b1111 J
1)
#760
0)
#765
b11001 7
b11001 @
b11001 H
b10100 5
b10100 A
b10100 I
b101110 6
b101110 D
b101110 F
b10100 J
b101110 E
1)
#770
0)
#775
b101101 6
b101101 D
b101101 F
b11110 7
b11110 @
b11110 H
b11001 5
b11001 A
b11001 I
b101101 E
b11001 J
1)
#780
0)
#785
b100011 7
b100011 @
b100011 H
b11110 5
b11110 A
b11110 I
b101100 6
b101100 D
b101100 F
b11110 J
b101100 E
1)
#790
0)
#795
b101011 6
b101011 D
b101011 F
b101000 7
b101000 @
b101000 H
b100011 5
b100011 A
b100011 I
b101011 E
b100011 J
1)
#800
0)
#805
b101101 7
b101101 @
b101101 H
b101000 5
b101000 A
b101000 I
b101010 6
b101010 D
b101010 F
b101000 J
b101010 E
1)
#810
0)
#815
b101001 6
b101001 D
b101001 F
b110010 7
b110010 @
b110010 H
b101101 5
b101101 A
b101101 I
b101001 E
b101101 J
1)
#820
0)
#825
b110111 7
b110111 @
b110111 H
b110010 5
b110010 A
b110010 I
b101000 6
b101000 D
b101000 F
b110010 J
b101000 E
1)
#830
0)
#835
b100111 6
b100111 D
b100111 F
b111100 7
b111100 @
b111100 H
b110111 5
b110111 A
b110111 I
b100111 E
b110111 J
1)
#840
0)
#845
b1000001 7
b1000001 @
b1000001 H
b111100 5
b111100 A
b111100 I
b100110 6
b100110 D
b100110 F
b111100 J
b100110 E
1)
#850
0)
#855
b100101 6
b100101 D
b100101 F
b1000110 7
b1000110 @
b1000110 H
b1000001 5
b1000001 A
b1000001 I
b100101 E
b1000001 J
1)
#860
0)
#865
b1001011 7
b1001011 @
b1001011 H
b1000110 5
b1000110 A
b1000110 I
b100100 6
b100100 D
b100100 F
b1000110 J
b100100 E
1)
#870
0)
#875
b100011 6
b100011 D
b100011 F
b1010000 7
b1010000 @
b1010000 H
b1001011 5
b1001011 A
b1001011 I
b100011 E
b1001011 J
1)
#880
0)
#885
b1010101 7
b1010101 @
b1010101 H
b1010000 5
b1010000 A
b1010000 I
b100010 6
b100010 D
b100010 F
b1010000 J
b100010 E
1)
#890
0)
#895
b100001 6
b100001 D
b100001 F
b1011010 7
b1011010 @
b1011010 H
b1010101 5
b1010101 A
b1010101 I
b100001 E
b1010101 J
1)
#900
0)
#905
b1011111 7
b1011111 @
b1011111 H
b1011010 5
b1011010 A
b1011010 I
b100000 6
b100000 D
b100000 F
b1011010 J
b100000 E
1)
#910
0)
#915
b11111 6
b11111 D
b11111 F
b1100100 7
b1100100 @
b1100100 H
b1011111 5
b1011111 A
b1011111 I
b11111 E
b1011111 J
1)
#920
0)
#925
b1101001 7
b1101001 @
b1101001 H
b1100100 5
b1100100 A
b1100100 I
b11110 6
b11110 D
b11110 F
b1100100 J
b11110 E
1)
#930
0)
#935
b11101 6
b11101 D
b11101 F
b1101110 7
b1101110 @
b1101110 H
b1101001 5
b1101001 A
b1101001 I
b11101 E
b1101001 J
1)
#940
0)
#945
b1110011 7
b1110011 @
b1110011 H
b1101110 5
b1101110 A
b1101110 I
b11100 6
b11100 D
b11100 F
b1101110 J
b11100 E
1)
#950
0)
#955
b11011 6
b11011 D
b11011 F
b1111000 7
b1111000 @
b1111000 H
b1110011 5
b1110011 A
b1110011 I
b11011 E
b1110011 J
1)
#960
0)
#965
b1111101 7
b1111101 @
b1111101 H
b1111000 5
b1111000 A
b1111000 I
b11010 6
b11010 D
b11010 F
b1111000 J
b11010 E
1)
#970
0)
#975
b11001 6
b11001 D
b11001 F
b10000010 7
b10000010 @
b10000010 H
b1111101 5
b1111101 A
b1111101 I
b11001 E
b1111101 J
1)
#980
0)
#985
b10000111 7
b10000111 @
b10000111 H
b10000010 5
b10000010 A
b10000010 I
b11000 6
b11000 D
b11000 F
b10000010 J
b11000 E
1)
#990
0)
#995
b10111 6
b10111 D
b10111 F
b10001100 7
b10001100 @
b10001100 H
b10000111 5
b10000111 A
b10000111 I
b10111 E
b10000111 J
1)
#1000
0)
#1005
b10010001 7
b10010001 @
b10010001 H
b10001100 5
b10001100 A
b10001100 I
b10110 6
b10110 D
b10110 F
b10001100 J
b10110 E
1)
#1010
0)
#1015
b10101 6
b10101 D
b10101 F
b10010110 7
b10010110 @
b10010110 H
b10010001 5
b10010001 A
b10010001 I
b10101 E
b10010001 J
1)
#1020
0)
#1025
b10011011 7
b10011011 @
b10011011 H
b10010110 5
b10010110 A
b10010110 I
b10100 6
b10100 D
b10100 F
b10010110 J
b10100 E
1)
#1030
0)
#1035
b10011 6
b10011 D
b10011 F
b10100000 7
b10100000 @
b10100000 H
b10011011 5
b10011011 A
b10011011 I
b10011 E
b10011011 J
1)
#1040
0)
#1045
b10100101 7
b10100101 @
b10100101 H
b10100000 5
b10100000 A
b10100000 I
b10010 6
b10010 D
b10010 F
b10100000 J
b10010 E
1)
#1050
0)
#1055
b10001 6
b10001 D
b10001 F
b10101010 7
b10101010 @
b10101010 H
b10100101 5
b10100101 A
b10100101 I
b10001 E
b10100101 J
1)
#1060
0)
#1065
b10101111 7
b10101111 @
b10101111 H
b10101010 5
b10101010 A
b10101010 I
b10000 6
b10000 D
b10000 F
b10101010 J
b10000 E
1)
#1070
0)
#1075
b1111 6
b1111 D
b1111 F
b10110100 7
b10110100 @
b10110100 H
b10101111 5
b10101111 A
b10101111 I
b1111 E
b10101111 J
1)
#1080
0)
#1085
b10111001 7
b10111001 @
b10111001 H
b10110100 5
b10110100 A
b10110100 I
b1110 6
b1110 D
b1110 F
b10110100 J
b1110 E
1)
#1090
0)
#1095
b1101 6
b1101 D
b1101 F
b10111110 7
b10111110 @
b10111110 H
b10111001 5
b10111001 A
b10111001 I
b1101 E
b10111001 J
1)
#1100
0)
#1105
b11000011 7
b11000011 @
b11000011 H
b10111110 5
b10111110 A
b10111110 I
b1100 6
b1100 D
b1100 F
b10111110 J
b1100 E
1)
#1110
0)
#1115
b1011 6
b1011 D
b1011 F
b11001000 7
b11001000 @
b11001000 H
b11000011 5
b11000011 A
b11000011 I
b1011 E
b11000011 J
1)
#1120
0)
#1125
b11001101 7
b11001101 @
b11001101 H
b11001000 5
b11001000 A
b11001000 I
b1010 6
b1010 D
b1010 F
b11001000 J
b1010 E
1)
#1130
0)
#1135
b1001 6
b1001 D
b1001 F
b11010010 7
b11010010 @
b11010010 H
b11001101 5
b11001101 A
b11001101 I
b1001 E
b11001101 J
1)
#1140
0)
#1145
b11010111 7
b11010111 @
b11010111 H
b11010010 5
b11010010 A
b11010010 I
b1000 6
b1000 D
b1000 F
b11010010 J
b1000 E
1)
#1150
0)
#1155
b111 6
b111 D
b111 F
b11011100 7
b11011100 @
b11011100 H
b11010111 5
b11010111 A
b11010111 I
b111 E
b11010111 J
1)
#1160
0)
#1165
b11100001 7
b11100001 @
b11100001 H
b11011100 5
b11011100 A
b11011100 I
b110 6
b110 D
b110 F
b11011100 J
b110 E
1)
#1170
0)
#1175
b101 6
b101 D
b101 F
b11100110 7
b11100110 @
b11100110 H
b11100001 5
b11100001 A
b11100001 I
b101 E
b11100001 J
1)
#1180
0)
#1185
b11101011 7
b11101011 @
b11101011 H
b11100110 5
b11100110 A
b11100110 I
b100 6
b100 D
b100 F
b11100110 J
b100 E
1)
#1190
0)
#1195
b11 6
b11 D
b11 F
b11110000 7
b11110000 @
b11110000 H
b11101011 5
b11101011 A
b11101011 I
b11 E
b11101011 J
1)
#1200
0)
#1205
b11110101 7
b11110101 @
b11110101 H
b11110000 5
b11110000 A
b11110000 I
b10 6
b10 D
b10 F
b11110000 J
b10 E
1)
#1210
0)
#1215
b1 6
b1 D
b1 F
b11111010 7
b11111010 @
b11111010 H
b11110101 5
b11110101 A
b11110101 I
b1 E
b11110101 J
1)
#1220
0)
#1225
b11 2
0!
0&
1$
b11111111 7
b11111111 @
b11111111 H
b11111010 5
b11111010 A
b11111010 I
b0 6
b0 D
b0 F
b11111010 J
b0 E
1)
#1230
0)
#1235
b11111010 (
b11111010 9
b0 2
1%
b11 3
1)
#1240
b10 -
0,
0)
#1245
bz (
bz 9
b1 2
0%
1'
1#
b0 3
1)
#1250
b10000111 *
b10000111 4
b10000111 <
b10000111 C
1,
0)
#1255
b10000111 8
b10000111 =
b10000111 ?
b10000111 7
b10000111 @
b10000111 H
b0 5
b0 A
b0 I
b10 2
x'
1"
0#
b10000111 >
b0 J
b1 3
1)
#1260
b11000111 *
b11000111 4
b11000111 <
b11000111 C
0)
#1265
1!
1&
0$
b10 2
0'
0"
b11000111 6
b11000111 D
b11000111 F
b10 3
b11000111 E
1)
#1270
0)
#1275
b11000110 6
b11000110 D
b11000110 F
b100001110 7
b100001110 @
b100001110 H
b10000111 5
b10000111 A
b10000111 I
b11000110 E
b10000111 J
1)
#1280
0)
#1285
b110010101 7
b110010101 @
b110010101 H
b100001110 5
b100001110 A
b100001110 I
b11000101 6
b11000101 D
b11000101 F
b100001110 J
b11000101 E
1)
#1290
0)
#1295
b11000100 6
b11000100 D
b11000100 F
b1000011100 7
b1000011100 @
b1000011100 H
b110010101 5
b110010101 A
b110010101 I
b11000100 E
b110010101 J
1)
#1300
0)
#1305
b1010100011 7
b1010100011 @
b1010100011 H
b1000011100 5
b1000011100 A
b1000011100 I
b11000011 6
b11000011 D
b11000011 F
b1000011100 J
b11000011 E
1)
#1310
0)
#1315
b11000010 6
b11000010 D
b11000010 F
b1100101010 7
b1100101010 @
b1100101010 H
b1010100011 5
b1010100011 A
b1010100011 I
b11000010 E
b1010100011 J
1)
#1320
0)
#1325
b1110110001 7
b1110110001 @
b1110110001 H
b1100101010 5
b1100101010 A
b1100101010 I
b11000001 6
b11000001 D
b11000001 F
b1100101010 J
b11000001 E
1)
#1330
0)
#1335
b11000000 6
b11000000 D
b11000000 F
b10000111000 7
b10000111000 @
b10000111000 H
b1110110001 5
b1110110001 A
b1110110001 I
b11000000 E
b1110110001 J
1)
#1340
0)
#1345
b10010111111 7
b10010111111 @
b10010111111 H
b10000111000 5
b10000111000 A
b10000111000 I
b10111111 6
b10111111 D
b10111111 F
b10000111000 J
b10111111 E
1)
#1350
0)
#1355
b10111110 6
b10111110 D
b10111110 F
b10101000110 7
b10101000110 @
b10101000110 H
b10010111111 5
b10010111111 A
b10010111111 I
b10111110 E
b10010111111 J
1)
#1360
0)
#1365
b10111001101 7
b10111001101 @
b10111001101 H
b10101000110 5
b10101000110 A
b10101000110 I
b10111101 6
b10111101 D
b10111101 F
b10101000110 J
b10111101 E
1)
#1370
0)
#1375
b10111100 6
b10111100 D
b10111100 F
b11001010100 7
b11001010100 @
b11001010100 H
b10111001101 5
b10111001101 A
b10111001101 I
b10111100 E
b10111001101 J
1)
#1380
0)
#1385
b11011011011 7
b11011011011 @
b11011011011 H
b11001010100 5
b11001010100 A
b11001010100 I
b10111011 6
b10111011 D
b10111011 F
b11001010100 J
b10111011 E
1)
#1390
0)
#1395
b10111010 6
b10111010 D
b10111010 F
b11101100010 7
b11101100010 @
b11101100010 H
b11011011011 5
b11011011011 A
b11011011011 I
b10111010 E
b11011011011 J
1)
#1400
0)
#1405
b11111101001 7
b11111101001 @
b11111101001 H
b11101100010 5
b11101100010 A
b11101100010 I
b10111001 6
b10111001 D
b10111001 F
b11101100010 J
b10111001 E
1)
#1410
0)
#1415
b10111000 6
b10111000 D
b10111000 F
b100001110000 7
b100001110000 @
b100001110000 H
b11111101001 5
b11111101001 A
b11111101001 I
b10111000 E
b11111101001 J
1)
#1420
0)
#1425
b100011110111 7
b100011110111 @
b100011110111 H
b100001110000 5
b100001110000 A
b100001110000 I
b10110111 6
b10110111 D
b10110111 F
b100001110000 J
b10110111 E
1)
#1430
0)
#1435
b10110110 6
b10110110 D
b10110110 F
b100101111110 7
b100101111110 @
b100101111110 H
b100011110111 5
b100011110111 A
b100011110111 I
b10110110 E
b100011110111 J
1)
#1440
0)
#1445
b101000000101 7
b101000000101 @
b101000000101 H
b100101111110 5
b100101111110 A
b100101111110 I
b10110101 6
b10110101 D
b10110101 F
b100101111110 J
b10110101 E
1)
#1450
0)
#1455
b10110100 6
b10110100 D
b10110100 F
b101010001100 7
b101010001100 @
b101010001100 H
b101000000101 5
b101000000101 A
b101000000101 I
b10110100 E
b101000000101 J
1)
#1460
0)
#1465
b101100010011 7
b101100010011 @
b101100010011 H
b101010001100 5
b101010001100 A
b101010001100 I
b10110011 6
b10110011 D
b10110011 F
b101010001100 J
b10110011 E
1)
#1470
0)
#1475
b10110010 6
b10110010 D
b10110010 F
b101110011010 7
b101110011010 @
b101110011010 H
b101100010011 5
b101100010011 A
b101100010011 I
b10110010 E
b101100010011 J
1)
#1480
0)
#1485
b110000100001 7
b110000100001 @
b110000100001 H
b101110011010 5
b101110011010 A
b101110011010 I
b10110001 6
b10110001 D
b10110001 F
b101110011010 J
b10110001 E
1)
#1490
0)
