lab1.vcd
$date
	Wed Mar 19 10:46:56 2025
$end
$version
	Icarus Verilog
$end
$timescale
	1ps
$end
$scope module asyn_counter_tb $end
$var wire 3 ! data_out [2:0] $end
$var reg 1 " clk $end
$var reg 3 # data_in [2:0] $end
$var reg 1 $ load_en $end
$scope module uut $end
$var wire 1 " clk $end
$var wire 3 % data_in [2:0] $end
$var wire 1 $ load_en $end
$var wire 3 & qn [2:0] $end
$var wire 3 ' q [2:0] $end
$var wire 3 ( pr [2:0] $end
$var wire 3 ) data_out [2:0] $end
$var wire 3 * d [2:0] $end
$var wire 3 + clr [2:0] $end
$scope module d0 $end
$var wire 1 , Clr $end
$var wire 1 - D $end
$var wire 1 . Pre $end
$var wire 1 / Q $end
$var wire 1 0 Qn $end
$var wire 1 " clk $end
$var wire 1 1 clr $end
$var wire 1 2 pre $end
$var wire 20 3 temp [19:0] $end
$upscope $end
$scope module d1 $end
$var wire 1 4 Clr $end
$var wire 1 5 D $end
$var wire 1 6 Pre $end
$var wire 1 7 Q $end
$var wire 1 8 Qn $end
$var wire 1 " clk $end
$var wire 1 9 clr $end
$var wire 1 : pre $end
$var wire 20 ; temp [19:0] $end
$upscope $end
$scope module d2 $end
$var wire 1 < Clr $end
$var wire 1 = D $end
$var wire 1 > Pre $end
$var wire 1 ? Q $end
$var wire 1 @ Qn $end
$var wire 1 " clk $end
$var wire 1 A clr $end
$var wire 1 B pre $end
$var wire 20 C temp [19:0] $end
$upscope $end
$scope module l $end
$var wire 1 D clr0 $end
$var wire 1 E clr1 $end
$var wire 1 F clr2 $end
$var wire 1 G d0 $end
$var wire 1 H d1 $end
$var wire 1 I d2 $end
$var wire 1 $ load_en $end
$var wire 1 J pr0 $end
$var wire 1 K pr1 $end
$var wire 1 L pr2 $end
$var wire 1 M t1 $end
$var wire 1 N t2 $end
$var wire 1 O t3 $end
$upscope $end
$scope module s $end
$var wire 1 P q0 $end
$var wire 1 Q q0_n $end
$var wire 1 R q1 $end
$var wire 1 S q1_n $end
$var wire 1 T q2 $end
$var wire 1 U q2_n $end
$var wire 1 V t1 $end
$var wire 1 W t2 $end
$var wire 1 X t3 $end
$var wire 1 Y t4 $end
$var wire 1 Z t5 $end
$var wire 1 [ t6 $end
$var wire 1 \ t7 $end
$var wire 1 ] t8 $end
$var wire 1 ^ t9 $end
$upscope $end
$upscope $end
$upscope $end
$enddefinitions $end
$comment Show the parameter values. $end
$dumpall
$end
#0
$dumpvars
0^
0]
0\
0[
1Z
1Y
1X
1W
1V
1U
0T
1S
0R
0Q
0P
1O
1N
1M
0L
0K
0J
0I
0H
0G
1F
1E
1D
b10010011101100001101 C
0B
1A
1@
0?
1>
1=
0<
b10010011101100001101 ;
0:
19
18
07
16
15
04
b10010011101101000111 3
02
11
10
0/
1.
0-
0,
b111 +
b110 *
b110 )
b0 (
b0 '
b111 &
b0 %
1$
b0 #
0"
b110 !
$end
#5000
b10011001101100001110 3
b10011001101100001100 ;
b10011001101100001100 C
1"
#10000
1<
14
1,
0A
09
01
b10010011001101000111 3
b10010011010010101001 ;
b10010011010010101001 C
0F
0E
b0 +
0D
0"
0$
#15000
b100 !
b100 )
08
05
b1 &
0@
0-
0S
0Y
0Z
b100 *
0Q
0W
0X
0^
1R
1T
17
b110 '
1?
b10011001001100001110 3
b1100110010010001110 ;
b1100110010010001100 C
1"
#20000
b10010011001101000111 3
b1100011001101000111 ;
b1100011010010101001 C
0"
#25000
b111 !
b111 )
1-
15
1Q
b111 *
1S
1^
1W
0R
b100 '
07
b11 &
18
b10011001001100001100 3
b10011001001100001100 ;
b1100110010010001100 C
1"
#30000
b10010011010010101001 3
b10010011010010101001 ;
b1100011010010101001 C
0"
#35000
b11 !
b11 )
00
0=
b0 &
08
b11 *
0U
0^
0V
1[
0W
1]
1P
1R
1/
b111 '
17
b1100110010010001100 3
b1100110010010001100 ;
b1100110010010001110 C
1"
#40000
b1100011010010101001 3
b1100011010010101001 ;
b1100011001101000111 C
0"
#45000
b0 !
b0 )
05
0-
0S
b0 *
0Q
1X
0[
0]
0T
b11 '
0?
b100 &
1@
b1100110010010001110 3
b1100110010010001110 ;
b10011001001100001110 C
1"
#50000
b1100011001101000111 3
b1100011001101000111 ;
b10010011001101000111 C
0"
#55000
b110 !
b110 )
1=
15
1U
1Z
1Y
b110 *
1S
1V
1W
0P
0R
0/
b0 '
07
10
b111 &
18
b10011001001100001110 3
b10011001001100001100 ;
b10011001001100001100 C
1"
#60000
b10010011001101000111 3
b10010011010010101001 ;
b10010011010010101001 C
0"
#65000
b100 !
b100 )
08
05
b1 &
0@
0-
0S
0Y
0Z
b100 *
0Q
0W
0X
0^
1R
1T
17
b110 '
1?
b10011001001100001110 3
b1100110010010001110 ;
b1100110010010001100 C
1"
#70000
b10010011001101000111 3
b1100011001101000111 ;
b1100011010010101001 C
0"
#75000
b111 !
b111 )
1-
15
1Q
b111 *
1S
1^
1W
0R
b100 '
07
b11 &
18
b10011001001100001100 3
b10011001001100001100 ;
b1100110010010001100 C
1"
#80000
b10010011010010101001 3
b10010011010010101001 ;
b1100011010010101001 C
0"
#85000
b11 !
b11 )
00
0=
b0 &
08
b11 *
0U
0^
0V
1[
0W
1]
1P
1R
1/
b111 '
17
b1100110010010001100 3
b1100110010010001100 ;
b1100110010010001110 C
1"
#90000
1=
b110 !
b110 )
1U
0-
1Y
b110 *
0Q
1X
0[
1W
0]
0T
0R
0?
b1 '
07
1@
18
b110 &
00
0.
12
0<
04
1,
0O
b1 (
1J
1A
19
01
b1100011010010011111 3
b10010011101100001101 ;
b10010011101100001101 C
1G
1F
1E
b110 +
0D
0"
b1 #
b1 %
1$
#95000
b1100110010010011110 3
b10011001101100001100 ;
b10011001101100001100 C
1"
#100000
1<
14
1.
0A
09
02
b1100011001101000111 3
b10010011010010101001 ;
b10010011010010101001 C
0F
b0 +
0E
b0 (
0J
0"
0$
#105000
05
0S
1V
0P
1=
b100 !
b100 )
0/
08
0@
1U
0-
0Y
b100 *
0Q
0W
0X
0[
0]
1R
1T
b1 &
10
17
b110 '
1?
b10011001001100001110 3
b1100110010010001110 ;
b1100110010010001100 C
1"
#110000
b10010011001101000111 3
b1100011001101000111 ;
b1100011010010101001 C
0"
#115000
b111 !
b111 )
1-
15
1Q
b111 *
1S
1^
1W
0R
b100 '
07
b11 &
18
b10011001001100001100 3
b10011001001100001100 ;
b1100110010010001100 C
1"
#120000
b10010011010010101001 3
b10010011010010101001 ;
b1100011010010101001 C
0"
#125000
b11 !
b11 )
00
0=
b0 &
08
b11 *
0U
0^
0V
1[
0W
1]
1P
1R
1/
b111 '
17
b1100110010010001100 3
b1100110010010001100 ;
b1100110010010001110 C
1"
#130000
b1100011010010101001 3
b1100011010010101001 ;
b1100011001101000111 C
0"
#135000
b0 !
b0 )
05
0-
0S
b0 *
0Q
1X
0[
0]
0T
b11 '
0?
b100 &
1@
b1100110010010001110 3
b1100110010010001110 ;
b10011001001100001110 C
1"
#140000
b1100011001101000111 3
b1100011001101000111 ;
b10010011001101000111 C
0"
#145000
b110 !
b110 )
1=
15
1U
1Z
1Y
b110 *
1S
1V
1W
0P
0R
0/
b0 '
07
10
b111 &
18
b10011001001100001110 3
b10011001001100001100 ;
b10011001001100001100 C
1"
#150000
b10010011001101000111 3
b10010011010010101001 ;
b10010011010010101001 C
0"
#155000
b100 !
b100 )
08
05
b1 &
0@
0-
0S
0Y
0Z
b100 *
0Q
0W
0X
0^
1R
1T
17
b110 '
1?
b10011001001100001110 3
b1100110010010001110 ;
b1100110010010001100 C
1"
#160000
b10010011001101000111 3
b1100011001101000111 ;
b1100011010010101001 C
0"
#165000
b111 !
b111 )
1-
15
1Q
b111 *
1S
1^
1W
0R
b100 '
07
b11 &
18
b10011001001100001100 3
b10011001001100001100 ;
b1100110010010001100 C
1"
#170000
b10010011010010101001 3
b10010011010010101001 ;
b1100011010010101001 C
0"
#175000
b11 !
b11 )
00
0=
b0 &
08
b11 *
0U
0^
0V
1[
0W
1]
1P
1R
1/
b111 '
17
b1100110010010001100 3
b1100110010010001100 ;
b1100110010010001110 C
1"
#180000
1=
1U
1Z
1\
b111 !
b111 )
1V
15
1-
0P
1S
b111 *
1Q
0/
1X
0[
0]
0T
b10 '
0?
10
1@
b101 &
08
0,
06
11
1:
1D
0<
14
1.
0N
1K
1O
1A
09
02
b10010011101100001101 3
b1100011010010111001 ;
b10010011101100001101 C
1H
0G
1F
b101 +
0E
b10 (
0J
0"
b10 #
b10 %
1$
#185000
b10011001101100001100 3
b1100110010010011100 ;
b10011001101100001100 C
1"
#190000
1<
16
1,
0A
0:
01
b10010011010010101001 3
b1100011010010101001 ;
b10010011010010101001 C
0F
b0 (
0K
b0 +
0D
0"
0$
#195000
b11 !
b11 )
00
0=
b0 &
0@
b11 *
0U
0Z
0\
0V
0X
1[
1]
1P
1T
1/
b111 '
1?
b1100110010010001100 3
b1100110010010001100 ;
b1100110010010001110 C
1"
#200000
b1100011010010101001 3
b1100011010010101001 ;
b1100011001101000111 C
0"
#205000
b0 !
b0 )
05
0-
0S
b0 *
0Q
1X
0[
0]
0T
b11 '
0?
b100 &
1@
b1100110010010001110 3
b1100110010010001110 ;
b10011001001100001110 C
1"
#210000
b1100011001101000111 3
b1100011001101000111 ;
b10010011001101000111 C
0"
#215000
b110 !
b110 )
1=
15
1U
1Z
1Y
b110 *
1S
1V
1W
0P
0R
0/
b0 '
07
10
b111 &
18
b10011001001100001110 3
b10011001001100001100 ;
b10011001001100001100 C
1"
#220000
b10010011001101000111 3
b10010011010010101001 ;
b10010011010010101001 C
0"
#225000
b100 !
b100 )
08
05
b1 &
0@
0-
0S
0Y
0Z
b100 *
0Q
0W
0X
0^
1R
1T
17
b110 '
1?
b10011001001100001110 3
b1100110010010001110 ;
b1100110010010001100 C
1"
#230000
b10010011001101000111 3
b1100011001101000111 ;
b1100011010010101001 C
0"
#235000
b111 !
b111 )
1-
15
1Q
b111 *
1S
1^
1W
0R
b100 '
07
b11 &
18
b10011001001100001100 3
b10011001001100001100 ;
b1100110010010001100 C
1"
#240000
b10010011010010101001 3
b10010011010010101001 ;
b1100011010010101001 C
0"
#245000
b11 !
b11 )
00
0=
b0 &
08
b11 *
0U
0^
0V
1[
0W
1]
1P
1R
1/
b111 '
17
b1100110010010001100 3
b1100110010010001100 ;
b1100110010010001110 C
1"
#250000
b1100011010010101001 3
b1100011010010101001 ;
b1100011001101000111 C
0"
#255000
b0 !
b0 )
05
0-
0S
b0 *
0Q
1X
0[
0]
0T
b11 '
0?
b100 &
1@
b1100110010010001110 3
b1100110010010001110 ;
b10011001001100001110 C
1"
#260000
b1100011001101000111 3
b1100011001101000111 ;
b10010011001101000111 C
0"
#265000
b110 !
b110 )
1=
15
1U
1Z
1Y
b110 *
1S
1V
1W
0P
0R
0/
b0 '
07
10
b111 &
18
b10011001001100001110 3
b10011001001100001100 ;
b10011001001100001100 C
1"
#270000
05
00
0S
0=
b0 !
b0 )
0Z
b100 &
08
0U
0-
0V
0Y
b0 *
0Q
1P
0W
0\
1/
1R
b11 '
17
0.
12
0<
06
1,
0O
1J
1A
1:
01
b1100011010010011111 3
b1100011010010011111 ;
b10010011101101000111 C
1G
1F
b11 (
1K
b100 +
0D
0"
b11 #
b11 %
1$
#275000
b1100110010010011110 3
b1100110010010011110 ;
b10011001101100001110 C
1"
#280000
1<
16
1.
0A
0:
02
b1100011001101000111 3
b1100011001101000111 ;
b10010011001101000111 C
b0 +
0F
0K
b0 (
0J
0"
0$
#285000
b110 !
b110 )
1=
15
1U
1Z
1Y
b110 *
1S
1V
1W
0P
0R
0/
b0 '
07
10
b111 &
18
b10011001001100001110 3
b10011001001100001100 ;
b10011001001100001100 C
1"
#290000
b10010011001101000111 3
b10010011010010101001 ;
b10010011010010101001 C
0"
#295000
b100 !
b100 )
08
05
b1 &
0@
0-
0S
0Y
0Z
b100 *
0Q
0W
0X
0^
1R
1T
17
b110 '
1?
b10011001001100001110 3
b1100110010010001110 ;
b1100110010010001100 C
1"
#300000
b10010011001101000111 3
b1100011001101000111 ;
b1100011010010101001 C
0"
#305000
b111 !
b111 )
1-
15
1Q
b111 *
1S
1^
1W
0R
b100 '
07
b11 &
18
b10011001001100001100 3
b10011001001100001100 ;
b1100110010010001100 C
1"
#310000
b10010011010010101001 3
b10010011010010101001 ;
b1100011010010101001 C
0"
#315000
b11 !
b11 )
00
0=
b0 &
08
b11 *
0U
0^
0V
1[
0W
1]
1P
1R
1/
b111 '
17
b1100110010010001100 3
b1100110010010001100 ;
b1100110010010001110 C
1"
#320000
b1100011010010101001 3
b1100011010010101001 ;
b1100011001101000111 C
0"
#325000
b0 !
b0 )
05
0-
0S
b0 *
0Q
1X
0[
0]
0T
b11 '
0?
b100 &
1@
b1100110010010001110 3
b1100110010010001110 ;
b10011001001100001110 C
1"
#330000
b1100011001101000111 3
b1100011001101000111 ;
b10010011001101000111 C
0"
#335000
b110 !
b110 )
1=
15
1U
1Z
1Y
b110 *
1S
1V
1W
0P
0R
0/
b0 '
07
10
b111 &
18
b10011001001100001110 3
b10011001001100001100 ;
b10011001001100001100 C
1"
#340000
b10010011001101000111 3
b10010011010010101001 ;
b10010011010010101001 C
0"
#345000
b100 !
b100 )
08
05
b1 &
0@
0-
0S
0Y
0Z
b100 *
0Q
0W
0X
0^
1R
1T
17
b110 '
1?
b10011001001100001110 3
b1100110010010001110 ;
b1100110010010001100 C
1"
#350000
b10010011001101000111 3
b1100011001101000111 ;
b1100011010010101001 C
0"
#355000
b111 !
b111 )
1-
15
1Q
b111 *
1S
1^
1W
0R
b100 '
07
b11 &
18
b10011001001100001100 3
b10011001001100001100 ;
b1100110010010001100 C
1"
#360000
b111 !
b111 )
1-
1=
1Q
b111 *
1U
1^
1W
1V
0[
0]
0R
0P
b11 &
0@
07
b100 '
0/
04
0,
0>
19
11
1B
1E
1D
1<
16
1.
0M
1L
1N
1O
0A
0:
02
b10010011101100001101 3
b10010011101100001101 ;
b1100011010010111001 C
1I
0H
0G
b11 +
0F
0K
b100 (
0J
0"
b100 #
b100 %
1$
#365000
b10011001101100001100 3
b10011001101100001100 ;
b1100110010010011100 C
1"
#370000
1>
14
1,
0B
09
01
b10010011010010101001 3
b10010011010010101001 ;
b1100011010010101001 C
b0 (
0L
0E
b0 +
0D
0"
0$
#375000
b11 !
b11 )
00
0=
b0 &
08
b11 *
0U
0^
0V
1[
0W
1]
1P
1R
1/
b111 '
17
b1100110010010001100 3
b1100110010010001100 ;
b1100110010010001110 C
1"
#380000
b1100011010010101001 3
b1100011010010101001 ;
b1100011001101000111 C
0"
#385000
b0 !
b0 )
05
0-
0S
b0 *
0Q
1X
0[
0]
0T
b11 '
0?
b100 &
1@
b1100110010010001110 3
b1100110010010001110 ;
b10011001001100001110 C
1"
#390000
b1100011001101000111 3
b1100011001101000111 ;
b10010011001101000111 C
0"
#395000
b110 !
b110 )
1=
15
1U
1Z
1Y
b110 *
1S
1V
1W
0P
0R
0/
b0 '
07
10
b111 &
18
b10011001001100001110 3
b10011001001100001100 ;
b10011001001100001100 C
1"
#400000
b10010011001101000111 3
b10010011010010101001 ;
b10010011010010101001 C
0"
#405000
b100 !
b100 )
08
05
b1 &
0@
0-
0S
0Y
0Z
b100 *
0Q
0W
0X
0^
1R
1T
17
b110 '
1?
b10011001001100001110 3
b1100110010010001110 ;
b1100110010010001100 C
1"
#410000
b10010011001101000111 3
b1100011001101000111 ;
b1100011010010101001 C
0"
#415000
b111 !
b111 )
1-
15
1Q
b111 *
1S
1^
1W
0R
b100 '
07
b11 &
18
b10011001001100001100 3
b10011001001100001100 ;
b1100110010010001100 C
1"
#420000
b10010011010010101001 3
b10010011010010101001 ;
b1100011010010101001 C
0"
#425000
b11 !
b11 )
00
0=
b0 &
08
b11 *
0U
0^
0V
1[
0W
1]
1P
1R
1/
b111 '
17
b1100110010010001100 3
b1100110010010001100 ;
b1100110010010001110 C
1"
#430000
b1100011010010101001 3
b1100011010010101001 ;
b1100011001101000111 C
0"
#435000
b0 !
b0 )
05
0-
0S
b0 *
0Q
1X
0[
0]
0T
b11 '
0?
b100 &
1@
b1100110010010001110 3
b1100110010010001110 ;
b10011001001100001110 C
1"
#440000
b1100011001101000111 3
b1100011001101000111 ;
b10010011001101000111 C
0"
#445000
b110 !
b110 )
1=
15
1U
1Z
1Y
b110 *
1S
1V
1W
0P
0R
0/
b0 '
07
10
b111 &
18
b10011001001100001110 3
b10011001001100001100 ;
b10011001001100001100 C
1"
#450000
00
0=
b10 !
b10 )
b10 &
0@
0U
0-
0V
1[
0Y
0Z
b10 *
0Q
1P
0X
0^
1/
1T
b101 '
1?
0.
12
0>
04
1,
0O
1J
1B
19
01
b1100011010010011111 3
b10010011101100001101 ;
b1100011010010011111 C
1G
b101 (
1L
1E
b10 +
0D
0"
b101 #
b101 %
1$
#455000
b1100110010010011110 3
b10011001101100001100 ;
b1100110010010011110 C
1"
#460000
1>
14
1.
0B
09
02
b1100011001101000111 3
b10010011010010101001 ;
b1100011001101000111 C
0L
b0 +
0E
b0 (
0J
0"
0$
#465000
1=
15
1U
1Z
1\
1S
1V
1X
0[
0P
b111 !
b111 )
0T
0/
08
1-
0?
b111 *
1Q
0W
0]
1R
10
b10 '
17
b101 &
1@
b10011001001100001100 3
b1100110010010001100 ;
b10011001001100001100 C
1"
#470000
b10010011010010101001 3
b1100011010010101001 ;
b10010011010010101001 C
0"
#475000
b11 !
b11 )
00
0=
b0 &
0@
b11 *
0U
0Z
0\
0V
0X
1[
1]
1P
1T
1/
b111 '
1?
b1100110010010001100 3
b1100110010010001100 ;
b1100110010010001110 C
1"
#480000
b1100011010010101001 3
b1100011010010101001 ;
b1100011001101000111 C
0"
#485000
b0 !
b0 )
05
0-
0S
b0 *
0Q
1X
0[
0]
0T
b11 '
0?
b100 &
1@
b1100110010010001110 3
b1100110010010001110 ;
b10011001001100001110 C
1"
#490000
b1100011001101000111 3
b1100011001101000111 ;
b10010011001101000111 C
0"
#495000
b110 !
b110 )
1=
15
1U
1Z
1Y
b110 *
1S
1V
1W
0P
0R
0/
b0 '
07
10
b111 &
18
b10011001001100001110 3
b10011001001100001100 ;
b10011001001100001100 C
1"
#500000
b10010011001101000111 3
b10010011010010101001 ;
b10010011010010101001 C
0"
#505000
b100 !
b100 )
08
05
b1 &
0@
0-
0S
0Y
0Z
b100 *
0Q
0W
0X
0^
1R
1T
17
b110 '
1?
b10011001001100001110 3
b1100110010010001110 ;
b1100110010010001100 C
1"
#510000
b10010011001101000111 3
b1100011001101000111 ;
b1100011010010101001 C
0"
#515000
b111 !
b111 )
1-
15
1Q
b111 *
1S
1^
1W
0R
b100 '
07
b11 &
18
b10011001001100001100 3
b10011001001100001100 ;
b1100110010010001100 C
1"
#520000
b10010011010010101001 3
b10010011010010101001 ;
b1100011010010101001 C
0"
#525000
b11 !
b11 )
00
0=
b0 &
08
b11 *
0U
0^
0V
1[
0W
1]
1P
1R
1/
b111 '
17
b1100110010010001100 3
b1100110010010001100 ;
b1100110010010001110 C
1"
#530000
b1100011010010101001 3
b1100011010010101001 ;
b1100011001101000111 C
0"
#535000
b0 !
b0 )
05
0-
0S
b0 *
0Q
1X
0[
0]
0T
b11 '
0?
b100 &
1@
b1100110010010001110 3
b1100110010010001110 ;
b10011001001100001110 C
1"
#540000
1=
1U
1V
0P
0/
b100 !
b100 )
0@
05
0-
0S
b100 *
0Q
10
0X
0[
0]
1T
b110 '
1?
b1 &
08
0,
06
11
1:
1D
0>
14
1.
0N
1K
1O
1B
09
02
b10010011101101000111 3
b1100011010010011111 ;
b1100011010010111001 C
1H
0G
1L
b1 +
0E
b110 (
0J
0"
b110 #
b110 %
1$
#545000
b10011001101100001110 3
b1100110010010011110 ;
b1100110010010011100 C
1"
#550000
1>
16
1,
0B
0:
01
b10010011001101000111 3
b1100011001101000111 ;
b1100011010010101001 C
0L
b0 (
0K
b0 +
0D
0"
0$
#555000
b111 !
b111 )
1-
15
1Q
b111 *
1S
1^
1W
0R
b100 '
07
b11 &
18
b10011001001100001100 3
b10011001001100001100 ;
b1100110010010001100 C
1"
#560000
b10010011010010101001 3
b10010011010010101001 ;
b1100011010010101001 C
0"
#565000
b11 !
b11 )
00
0=
b0 &
08
b11 *
0U
0^
0V
1[
0W
1]
1P
1R
1/
b111 '
17
b1100110010010001100 3
b1100110010010001100 ;
b1100110010010001110 C
1"
#570000
b1100011010010101001 3
b1100011010010101001 ;
b1100011001101000111 C
0"
#575000
b0 !
b0 )
05
0-
0S
b0 *
0Q
1X
0[
0]
0T
b11 '
0?
b100 &
1@
b1100110010010001110 3
b1100110010010001110 ;
b10011001001100001110 C
1"
#580000
b1100011001101000111 3
b1100011001101000111 ;
b10010011001101000111 C
0"
#585000
b110 !
b110 )
1=
15
1U
1Z
1Y
b110 *
1S
1V
1W
0P
0R
0/
b0 '
07
10
b111 &
18
b10011001001100001110 3
b10011001001100001100 ;
b10011001001100001100 C
1"
#590000
b10010011001101000111 3
b10010011010010101001 ;
b10010011010010101001 C
0"
#595000
b100 !
b100 )
08
05
b1 &
0@
0-
0S
0Y
0Z
b100 *
0Q
0W
0X
0^
1R
1T
17
b110 '
1?
b10011001001100001110 3
b1100110010010001110 ;
b1100110010010001100 C
1"
#600000
b10010011001101000111 3
b1100011001101000111 ;
b1100011010010101001 C
0"
#605000
b111 !
b111 )
1-
15
1Q
b111 *
1S
1^
1W
0R
b100 '
07
b11 &
18
b10011001001100001100 3
b10011001001100001100 ;
b1100110010010001100 C
1"
#610000
b10010011010010101001 3
b10010011010010101001 ;
b1100011010010101001 C
0"
#615000
b11 !
b11 )
00
0=
b0 &
08
b11 *
0U
0^
0V
1[
0W
1]
1P
1R
1/
b111 '
17
b1100110010010001100 3
b1100110010010001100 ;
b1100110010010001110 C
1"
#620000
b1100011010010101001 3
b1100011010010101001 ;
b1100011001101000111 C
0"
#625000
b0 !
b0 )
05
0-
0S
b0 *
0Q
1X
0[
0]
0T
b11 '
0?
b100 &
1@
b1100110010010001110 3
b1100110010010001110 ;
b10011001001100001110 C
1"
#630000
b11 !
b11 )
0@
15
1-
1S
b11 *
1Q
0X
1[
1]
1T
b111 '
1?
b0 &
00
0.
12
0>
06
1,
0O
1J
1B
1:
01
b1100011010010111001 3
b1100011010010111001 ;
b1100011010010011111 C
1G
1L
b111 (
1K
b0 +
0D
0"
b111 #
b111 %
1$
#635000
b1100110010010011100 3
b1100110010010011100 ;
b1100110010010011110 C
1"
#640000
1>
16
1.
0B
0:
02
b1100011010010101001 3
b1100011010010101001 ;
b1100011001101000111 C
0L
0K
b0 (
0J
0"
0$
#645000
b0 !
b0 )
05
0-
0S
b0 *
0Q
1X
0[
0]
0T
b11 '
0?
b100 &
1@
b1100110010010001110 3
b1100110010010001110 ;
b10011001001100001110 C
1"
#650000
b1100011001101000111 3
b1100011001101000111 ;
b10010011001101000111 C
0"
#655000
b110 !
b110 )
1=
15
1U
1Z
1Y
b110 *
1S
1V
1W
0P
0R
0/
b0 '
07
10
b111 &
18
b10011001001100001110 3
b10011001001100001100 ;
b10011001001100001100 C
1"
#660000
b10010011001101000111 3
b10010011010010101001 ;
b10010011010010101001 C
0"
#665000
b100 !
b100 )
08
05
b1 &
0@
0-
0S
0Y
0Z
b100 *
0Q
0W
0X
0^
1R
1T
17
b110 '
1?
b10011001001100001110 3
b1100110010010001110 ;
b1100110010010001100 C
1"
#670000
b10010011001101000111 3
b1100011001101000111 ;
b1100011010010101001 C
0"
#675000
b111 !
b111 )
1-
15
1Q
b111 *
1S
1^
1W
0R
b100 '
07
b11 &
18
b10011001001100001100 3
b10011001001100001100 ;
b1100110010010001100 C
1"
#680000
b10010011010010101001 3
b10010011010010101001 ;
b1100011010010101001 C
0"
#685000
b11 !
b11 )
00
0=
b0 &
08
b11 *
0U
0^
0V
1[
0W
1]
1P
1R
1/
b111 '
17
b1100110010010001100 3
b1100110010010001100 ;
b1100110010010001110 C
1"
#690000
b1100011010010101001 3
b1100011010010101001 ;
b1100011001101000111 C
0"
#695000
b0 !
b0 )
05
0-
0S
b0 *
0Q
1X
0[
0]
0T
b11 '
0?
b100 &
1@
b1100110010010001110 3
b1100110010010001110 ;
b10011001001100001110 C
1"
#700000
b1100011001101000111 3
b1100011001101000111 ;
b10010011001101000111 C
0"
#705000
b110 !
b110 )
1=
15
1U
1Z
1Y
b110 *
1S
1V
1W
0P
0R
0/
b0 '
07
10
b111 &
18
b10011001001100001110 3
b10011001001100001100 ;
b10011001001100001100 C
1"
#710000
b10010011001101000111 3
b10010011010010101001 ;
b10010011010010101001 C
0"
#715000
b100 !
b100 )
08
05
b1 &
0@
0-
0S
0Y
0Z
b100 *
0Q
0W
0X
0^
1R
1T
17
b110 '
1?
b10011001001100001110 3
b1100110010010001110 ;
b1100110010010001100 C
1"
#720000
b10010011001101000111 3
b1100011001101000111 ;
b1100011010010101001 C
0"
#725000
b111 !
b111 )
1-
15
1Q
b111 *
1S
1^
1W
0R
b100 '
07
b11 &
18
b10011001001100001100 3
b10011001001100001100 ;
b1100110010010001100 C
1"
#730000
b10010011010010101001 3
b10010011010010101001 ;
b1100011010010101001 C
0"
#735000
b11 !
b11 )
00
0=
b0 &
08
b11 *
0U
0^
0V
1[
0W
1]
1P
1R
1/
b111 '
17
b1100110010010001100 3
b1100110010010001100 ;
b1100110010010001110 C
1"
#740000
b1100011010010101001 3
b1100011010010101001 ;
b1100011001101000111 C
0"
