mealy.vcd
$date
	Wed Apr 02 08:54:44 2025
$end
$version
	Icarus Verilog
$end
$timescale
	1ps
$end
$scope module tb $end
$var wire 3 ! outp2 [2:0] $end
$var wire 1 " done $end
$var wire 2 # detect [1:0] $end
$var reg 1 $ clk $end
$var reg 3 % inp [2:0] $end
$var reg 1 & rst $end
$scope module m $end
$var wire 1 $ clk $end
$var wire 3 ' inp [2:0] $end
$var wire 1 & rst $end
$var parameter 2 ( S0 $end
$var parameter 2 ) S1 $end
$var parameter 2 * S2 $end
$var parameter 2 + S3 $end
$var reg 2 , NState [1:0] $end
$var reg 2 - PState [1:0] $end
$var reg 2 . detect [1:0] $end
$var reg 1 " done $end
$var reg 3 / outp [2:0] $end
$upscope $end
$upscope $end
$enddefinitions $end
$comment Show the parameter values. $end
$dumpall
b11 +
b10 *
b1 )
b0 (
$end
#0
$dumpvars
b0 /
b0 .
b0 -
b1 ,
b0 '
1&
b0 %
0$
b0 #
0"
b0 !
$end
#5000
1$
#10000
0$
0&
#15000
b0 ,
b1 -
1$
#20000
0$
#25000
b1 ,
b0 -
1$
#30000
b0 ,
0$
b110 %
b110 '
#35000
1$
#40000
0$
b100 %
b100 '
#45000
1$
#50000
0$
b10 %
b10 '
#55000
1$
#60000
b1 ,
0$
b0 %
b0 '
#65000
b0 ,
b1 -
1$
#70000
b10 ,
b110 !
b110 /
0$
b110 %
b110 '
#75000
b0 ,
b10 -
1$
#80000
b11 ,
b100 !
b100 /
0$
b100 %
b100 '
#85000
b0 ,
b11 -
1$
#90000
1"
b1 #
b1 .
b10 !
b10 /
0$
b10 %
b10 '
#95000
b0 -
1$
#100000
b1 ,
0"
b0 #
b0 .
b0 !
b0 /
0$
b0 %
b0 '
#105000
b0 ,
b1 -
1$
#110000
b10 ,
b110 !
b110 /
0$
b110 %
b110 '
#115000
b0 ,
b10 -
1$
#120000
b11 ,
b100 !
b100 /
0$
b100 %
b100 '
#125000
b0 ,
b11 -
1$
#130000
1"
b1 #
b1 .
b10 !
b10 /
0$
b10 %
b10 '
#135000
b0 -
1$
#140000
b1 ,
0"
b0 #
b0 .
b0 !
b0 /
0$
b0 %
b0 '
#145000
b0 ,
b1 -
1$
#150000
b10 ,
b110 !
b110 /
0$
b110 %
b110 '
#155000
b0 ,
b10 -
1$
#160000
b11 ,
b100 !
b100 /
0$
b100 %
b100 '
#165000
b0 ,
b11 -
1$
#170000
1"
b1 #
b1 .
b10 !
b10 /
0$
b10 %
b10 '
#175000
b0 -
1$
#180000
b1 ,
0"
b0 #
b0 .
b0 !
b0 /
0$
b0 %
b0 '
#185000
b0 ,
b1 -
1$
#190000
b10 ,
b110 !
b110 /
0$
b110 %
b110 '
#195000
b0 ,
b10 -
1$
#200000
b11 ,
b100 !
b100 /
0$
b100 %
b100 '
#205000
b0 ,
b11 -
1$
#210000
0$
b111 %
b111 '
#215000
b0 -
1$
#220000
b1 ,
b0 !
b0 /
0$
b0 %
b0 '
#225000
b0 ,
b1 -
1$
#230000
b10 ,
b110 !
b110 /
0$
b110 %
b110 '
#235000
b0 ,
b10 -
1$
#240000
b11 ,
b100 !
b100 /
0$
b100 %
b100 '
#245000
b0 ,
b11 -
1$
#250000
0$
b1 %
b1 '
#255000
b0 -
1$
#260000
b1 ,
b0 !
b0 /
0$
b0 %
b0 '
#265000
b0 ,
b1 -
1$
#270000
b10 ,
b110 !
b110 /
0$
b110 %
b110 '
#275000
b0 ,
b10 -
1$
#280000
b11 ,
b100 !
b100 /
0$
b100 %
b100 '
#285000
b0 ,
b11 -
1$
#290000
1"
b1 #
b1 .
b10 !
b10 /
0$
b10 %
b10 '
#295000
b0 -
1$
